Time keeper / {{activity.owner}} - {{activity.name}}
================================================================================
Day                 Sum
--------------------------------------------------------------------------------
{% for day in days %}{{day.day|date:"d/m/y"}}            {{day.sum}}
{% endfor %}--------------------------------------------------------------------------------
                                        Total: {{total}}
================================================================================
Time Keeper (http://github.com/ondrejsika/time-keeper), Ondrej Sika